Clustering experimental macrophage gene expression data
…
# add categories and factors
# select columns of interest from phenotype data
pheno_pca <- pheno_data %>%
  rownames_to_column(var = "raw_id") %>%
  dplyr::select(raw_id, treatment, clusternum)

df_pca <- t_DataMatrix %>%
  as.data.frame() %>%
  rownames_to_column(var = "raw_id") %>%
  left_join(pheno_pca, by = "raw_id") %>%
  as_tibble() %>%
  dplyr::select(raw_id, treatment, clusternum, everything()) %>%
  print()

# A tibble: 111 x 39,471
   raw_id treatment clusternum fqPEquJRRlSVSfL… ckiehnugOno9d7v…
   <chr>  <fct>     <fct>                 <dbl>            <dbl>
 1 44876… control   0                      6.33             6.31
 2 44876… IL4       2                      6.14             6.10
 3 44876… TPP       9                      6.12             6.30
 4 44876… IFNg      6                      6.39             6.00
 5 46761… sLPS_IC   7                      6.02             6.71
 6 46761… IL13      2                      6.13             6.52
 7 46761… IL10      1                      6.11             6.03
 8 46761… sLPS      7                      6.83             6.27
 9 46761… IFNg      6                      6.51             6.30
10 46761… IL4       2                      6.08             6.12
# … with 101 more rows, and 39,466 more variables:
#   ritxUH.kuHlYqjozpE <dbl>, QpE5UiUgmJOJEkPXpc <dbl>,
#   EedxN6XeUOgPSCywB0 <dbl>, `3l3lDoD0gssAdeehIY` <dbl>,
#   WS4S8aGL855YVcUUZE <dbl>, KS8aGL855YVcUUZH50 <dbl>,
#   TdSfOuLunqrkiJkag8 <dbl>, ZfoDn4IUQp4Auf56LU <dbl>,
#   `97DZJV_gpQpKINl0Ec` <dbl>, W38p0ogk.wIBVRXllY <dbl>,
#   QUTgUoqmp7jyKCQRHo <dbl>, BZKiEvS0eQ305U0v34 <dbl>,
#   HshT.TuzF13i0V0rKg <dbl>, `6Rff76jvd6HDh1KYhQ` <dbl>,
#   `6TheVd.HiE1UF3lX6g` <dbl>, QueXUXiL5yqvftiNO0 <dbl>,
…
# extract cluster assignment from km results
clust_asgn <- enframe(res_km$cluster) %>%
  dplyr::rename(rawID = name, km_clust = value)

# combine results with phenotype data
# compare cluster assignments to treatments and original clusters
pheno_tbl <- pData(mac_eset) %>%
  rownames_to_column(var = "rawID") %>%
  as_tibble() %>%
  left_join(clust_asgn, by = "rawID") %>%
  arrange(treatment) %>%
  dplyr::select(rawID, treatment, km_clust, clusternum) %>%
  print()

# A tibble: 111 x 4
   rawID        treatment km_clust clusternum
   <chr>        <fct>        <int> <fct>     
 1 4487653414_E control          6 0         
 2 4676163030_A control         10 0         
 3 4676163030_E control          6 0         
 4 4676163030_I control          6 0         
 5 4676163034_H control         10 0         
 6 4950679013_E control         10 0         
 7 4950679045_C control         10 0         
 8 4676163025_L GC               6 1         
 9 4950679013_J GC               6 1         
10 4950679045_B GC               6 1         
# … with 101 more rows
…
Warning: Column `treatment` joining factor and character vector, coercing
into character vector

# A tibble: 111 x 6
   rawID treatment sample_cluster orig_cluster treatment_clust… adj_cluster
   <chr> <fct>     <fct>          <fct>        <fct>            <fct>      
 1 4487… control   6              0            6                0          
 2 4676… control   10             0            6                0          
 3 4676… control   6              0            6                0          
 4 4676… control   6              0            6                0          
 5 4676… control   10             0            6                0          
 6 4950… control   10             0            6                0          
 7 4950… control   10             0            6                0          
 8 4676… GC        6              1            6                6          
 9 4950… GC        6              1            6                6          
10 4950… GC        6              1            6                6          
# … with 101 more rows

# use normalized gene expression values from PCA plots above
# t_DataMatrix is gene expression matrix in tidy format from earlier in this notebook
df_pca_clust <- t_DataMatrix %>%
  as.data.frame() %>%
  rownames_to_column(var = "rawID") %>%
  left_join(pheno_tbl_clust, by = "rawID") %>%
  as_tibble() %>%
  dplyr::select(rawID, treatment, adj_cluster, treatment_cluster, sample_cluster, orig_cluster, everything()) %>%
  print()

# A tibble: 111 x 39,474
   rawID treatment adj_cluster treatment_clust… sample_cluster orig_cluster
   <chr> <fct>     <fct>       <fct>            <fct>          <fct>       
 1 4487… control   0           6                6              0           
 2 4487… IL4       1           1                1              2           
 3 4487… TPP       5           5                8              9           
 4 4487… IFNg      2           2                9              6           
 5 4676… sLPS_IC   7           7                5              7           
 6 4676… IL13      1           1                7              2           
 7 4676… IL10      6           6                10             1           
 8 4676… sLPS      5           5                5              7           
 9 4676… IFNg      2           2                9              6           
10 4676… IL4       1           1                7              2           
# … with 101 more rows, and 39,468 more variables:
#   fqPEquJRRlSVSfL.8A <dbl>, ckiehnugOno9d7vf1Q <dbl>,
#   ritxUH.kuHlYqjozpE <dbl>, QpE5UiUgmJOJEkPXpc <dbl>,
#   EedxN6XeUOgPSCywB0 <dbl>, `3l3lDoD0gssAdeehIY` <dbl>,
#   WS4S8aGL855YVcUUZE <dbl>, KS8aGL855YVcUUZH50 <dbl>,
#   TdSfOuLunqrkiJkag8 <dbl>, ZfoDn4IUQp4Auf56LU <dbl>,
#   `97DZJV_gpQpKINl0Ec` <dbl>, W38p0ogk.wIBVRXllY <dbl>,
#   QUTgUoqmp7jyKCQRHo <dbl>, BZKiEvS0eQ305U0v34 <dbl>,
#   HshT.TuzF13i0V0rKg <dbl>, `6Rff76jvd6HDh1KYhQ` <dbl>,
…
