Differential gene expression: _in vitro_ macrophage model
…
# OK if rownames are dropped, column is duplicated as "raw_id"
pheno_data <- pheno_data %>%
  as_tibble() %>%
# clean up experimental group data
  mutate(treatment = str_sub(cell_type, 9, 25),
         treatment = str_replace(treatment, "_72h", ""),
         treatment = ifelse(`activation stimuli:ch1` == "con", "control", treatment),
         treatment = trimws(treatment)) %>%
  dplyr::select(raw_id, geo_id, treatment, everything()) %>%
  print()

# A tibble: 111 x 41
   raw_id geo_id treatment cell_type geo_accession status submission_date
   <chr>  <chr>  <chr>     <chr>     <chr>         <fct>  <fct>          
 1 44876… GSM11… control   "M0_GMCS… GSM1140443    Publi… May 14 2013    
 2 44876… GSM11… IL4       "M_GMCSF… GSM1140444    Publi… May 14 2013    
 3 44876… GSM11… TPP       "M_GMCSF… GSM1140445    Publi… May 14 2013    
 4 44876… GSM11… IFNg      "M_GMCSF… GSM1140446    Publi… May 14 2013    
 5 46761… GSM11… sLPS_IC   "M_GMCSF… GSM1140484    Publi… May 14 2013    
 6 46761… GSM11… IL13      "M_GMCSF… GSM1140485    Publi… May 14 2013    
 7 46761… GSM11… IL10      "M_GMCSF… GSM1140486    Publi… May 14 2013    
 8 46761… GSM11… sLPS      "M_GMCSF… GSM1140489    Publi… May 14 2013    
 9 46761… GSM11… IFNg      "M_GMCSF… GSM1140490    Publi… May 14 2013    
10 46761… GSM11… IL4       "M_GMCSF… GSM1140492    Publi… May 14 2013    
# … with 101 more rows, and 34 more variables: last_update_date <fct>,
#   type <fct>, channel_count <fct>, source_name_ch1 <fct>,
#   organism_ch1 <fct>, characteristics_ch1 <fct>,
#   characteristics_ch1.1 <fct>, characteristics_ch1.2 <fct>,
#   characteristics_ch1.3 <fct>, molecule_ch1 <fct>,
#   extract_protocol_ch1 <fct>, label_ch1 <fct>, label_protocol_ch1 <fct>,
#   taxid_ch1 <fct>, hyb_protocol <fct>, scan_protocol <fct>,
#   description <fct>, data_processing <fct>, platform_id <fct>,
#   contact_name <fct>, contact_email <fct>, contact_department <fct>,
…
                                 "7" = "sLPS_IFNg",
                                 "7" = "sLPS_IC",
                                 "8" = "TNFa_PGE2",
                                 "8" = "TNFa_P3C",
                                 "9" = "TPP",
                                 "9" = "TPP_IFNb",
                                 "9" = "TPP_IFNb_IFNg"),
         treatment = fct_recode(treatment, 
                                "IL4_upLPS" = "L4_upLPS",
                                "upLPS" = "pLPS",
                                "IL4" = "L4")) %>%
  dplyr::select(raw_id, geo_id, treatment, clusternum, everything()) %>%
  print()

# A tibble: 111 x 42
   raw_id geo_id treatment clusternum cell_type geo_accession status
   <chr>  <chr>  <fct>     <fct>      <chr>     <chr>         <fct> 
 1 44876… GSM11… control   0          "M0_GMCS… GSM1140443    Publi…
 2 44876… GSM11… IL4       2          "M_GMCSF… GSM1140444    Publi…
 3 44876… GSM11… TPP       9          "M_GMCSF… GSM1140445    Publi…
 4 44876… GSM11… IFNg      6          "M_GMCSF… GSM1140446    Publi…
 5 46761… GSM11… sLPS_IC   7          "M_GMCSF… GSM1140484    Publi…
 6 46761… GSM11… IL13      2          "M_GMCSF… GSM1140485    Publi…
 7 46761… GSM11… IL10      1          "M_GMCSF… GSM1140486    Publi…
 8 46761… GSM11… sLPS      7          "M_GMCSF… GSM1140489    Publi…
 9 46761… GSM11… IFNg      6          "M_GMCSF… GSM1140490    Publi…
10 46761… GSM11… IL4       2          "M_GMCSF… GSM1140492    Publi…
# … with 101 more rows, and 35 more variables: submission_date <fct>,
#   last_update_date <fct>, type <fct>, channel_count <fct>,
#   source_name_ch1 <fct>, organism_ch1 <fct>, characteristics_ch1 <fct>,
#   characteristics_ch1.1 <fct>, characteristics_ch1.2 <fct>,
#   characteristics_ch1.3 <fct>, molecule_ch1 <fct>,
#   extract_protocol_ch1 <fct>, label_ch1 <fct>, label_protocol_ch1 <fct>,
#   taxid_ch1 <fct>, hyb_protocol <fct>, scan_protocol <fct>,
#   description <fct>, data_processing <fct>, platform_id <fct>,
#   contact_name <fct>, contact_email <fct>, contact_department <fct>,
…
