Cleaning and clustering experimental macrophage gene expression data
…
Subset metadata

# use macrophages cultured for 72 hours (endpoint)
mac_metadata <- meta_data46903 %>%
  as_tibble() %>%
  filter(`initial differentiation:ch1` %in% c("GM-CSF", "M-CSF"),
         grepl("72h", characteristics_ch1.2)) %>%
  print()

# A tibble: 111 x 40
   geo_id cell_type raw_id geo_accession status submission_date
   <chr>  <chr>     <chr>  <chr>         <fct>  <fct>          
 1 GSM11… "M0_GMCS… 44876… GSM1140443    Publi… May 14 2013    
 2 GSM11… "M_GMCSF… 44876… GSM1140444    Publi… May 14 2013    
 3 GSM11… "M_GMCSF… 44876… GSM1140445    Publi… May 14 2013    
 4 GSM11… "M_GMCSF… 44876… GSM1140446    Publi… May 14 2013    
 5 GSM11… "M_GMCSF… 46761… GSM1140484    Publi… May 14 2013    
 6 GSM11… "M_GMCSF… 46761… GSM1140485    Publi… May 14 2013    
 7 GSM11… "M_GMCSF… 46761… GSM1140486    Publi… May 14 2013    
 8 GSM11… "M_GMCSF… 46761… GSM1140489    Publi… May 14 2013    
 9 GSM11… "M_GMCSF… 46761… GSM1140490    Publi… May 14 2013    
10 GSM11… "M_GMCSF… 46761… GSM1140492    Publi… May 14 2013    
# … with 101 more rows, and 34 more variables: last_update_date <fct>,
#   type <fct>, channel_count <fct>, source_name_ch1 <fct>,
#   organism_ch1 <fct>, characteristics_ch1 <fct>,
#   characteristics_ch1.1 <fct>, characteristics_ch1.2 <fct>,
#   characteristics_ch1.3 <fct>, molecule_ch1 <fct>,
#   extract_protocol_ch1 <fct>, label_ch1 <fct>, label_protocol_ch1 <fct>,
#   taxid_ch1 <fct>, hyb_protocol <fct>, scan_protocol <fct>,
#   description <fct>, data_processing <fct>, platform_id <fct>,
#   contact_name <fct>, contact_email <fct>, contact_department <fct>,
…
# remove probe_id for subsetting, will add back in aferwards
probe_id <- exp_data %>% pull(probe_id)
  
# use vector of sample names to select cases  
mac_exprs <- exp_data %>%
  dplyr::select(one_of(mac_samples)) %>%
  add_column(probe_id, .before = "4487653414_E") 

# compare representative columns to ensure the order wasn't lost
mac_exprs %>%
  dplyr::select(probe_id, "4487653414_E", "4487653415_E") %>%
  print()

# A tibble: 47,462 x 3
   probe_id           `4487653414_E` `4487653415_E`
   <chr>                       <dbl>          <dbl>
 1 Ku8QhfS0n_hIOABXuE           5.93           5.81
 2 fqPEquJRRlSVSfL.8A           6.33           6.14
 3 ckiehnugOno9d7vf1Q           6.31           6.10
 4 x57Vw5B5Fbt5JUnQkI           5.86           6.14
 5 ritxUH.kuHlYqjozpE           6.31           6.15
 6 QpE5UiUgmJOJEkPXpc           6.27           6.18
 7 EedxN6XeUOgPSCywB0           6.39           6.38
 8 ZtOcIegchMOATSJScI           5.68           5.98
 9 3l3lDoD0gssAdeehIY           6.16           6.11
10 WS4S8aGL855YVcUUZE           6.18           6.04
# … with 47,452 more rows

exp_data %>%
  dplyr::select(probe_id, "4487653414_E", "4487653415_E") %>%
  print()

# A tibble: 47,462 x 3
   probe_id           `4487653414_E` `4487653415_E`
   <chr>                       <dbl>          <dbl>
 1 Ku8QhfS0n_hIOABXuE           5.93           5.81
 2 fqPEquJRRlSVSfL.8A           6.33           6.14
 3 ckiehnugOno9d7vf1Q           6.31           6.10
 4 x57Vw5B5Fbt5JUnQkI           5.86           6.14
 5 ritxUH.kuHlYqjozpE           6.31           6.15
 6 QpE5UiUgmJOJEkPXpc           6.27           6.18
 7 EedxN6XeUOgPSCywB0           6.39           6.38
 8 ZtOcIegchMOATSJScI           5.68           5.98
 9 3l3lDoD0gssAdeehIY           6.16           6.11
10 WS4S8aGL855YVcUUZE           6.18           6.04
# … with 47,452 more rows
…
# OK if rownames are dropped, column is duplicated as "raw_id"
pheno_data <- pheno_data %>%
  as_tibble() %>%
# clean up experimental group data
  mutate(treatment = str_sub(cell_type, 9, 25),
         treatment = str_replace(treatment, "_72h", ""),
         treatment = ifelse(`activation stimuli:ch1` == "con", "control", treatment),
         treatment = trimws(treatment)) %>%
  dplyr::select(raw_id, geo_id, treatment, everything()) %>%
  print()

# A tibble: 111 x 41
   raw_id geo_id treatment cell_type geo_accession status submission_date
   <chr>  <chr>  <chr>     <chr>     <chr>         <fct>  <fct>          
 1 44876… GSM11… control   "M0_GMCS… GSM1140443    Publi… May 14 2013    
 2 44876… GSM11… IL4       "M_GMCSF… GSM1140444    Publi… May 14 2013    
 3 44876… GSM11… TPP       "M_GMCSF… GSM1140445    Publi… May 14 2013    
 4 44876… GSM11… IFNg      "M_GMCSF… GSM1140446    Publi… May 14 2013    
 5 46761… GSM11… sLPS_IC   "M_GMCSF… GSM1140484    Publi… May 14 2013    
 6 46761… GSM11… IL13      "M_GMCSF… GSM1140485    Publi… May 14 2013    
 7 46761… GSM11… IL10      "M_GMCSF… GSM1140486    Publi… May 14 2013    
 8 46761… GSM11… sLPS      "M_GMCSF… GSM1140489    Publi… May 14 2013    
 9 46761… GSM11… IFNg      "M_GMCSF… GSM1140490    Publi… May 14 2013    
10 46761… GSM11… IL4       "M_GMCSF… GSM1140492    Publi… May 14 2013    
# … with 101 more rows, and 34 more variables: last_update_date <fct>,
#   type <fct>, channel_count <fct>, source_name_ch1 <fct>,
#   organism_ch1 <fct>, characteristics_ch1 <fct>,
#   characteristics_ch1.1 <fct>, characteristics_ch1.2 <fct>,
#   characteristics_ch1.3 <fct>, molecule_ch1 <fct>,
#   extract_protocol_ch1 <fct>, label_ch1 <fct>, label_protocol_ch1 <fct>,
#   taxid_ch1 <fct>, hyb_protocol <fct>, scan_protocol <fct>,
#   description <fct>, data_processing <fct>, platform_id <fct>,
#   contact_name <fct>, contact_email <fct>, contact_department <fct>,
…
                                 "7" = "sLPS_IFNg",
                                 "7" = "sLPS_IC",
                                 "8" = "TNFa_PGE2",
                                 "8" = "TNFa_P3C",
                                 "9" = "TPP",
                                 "9" = "TPP_IFNb",
                                 "9" = "TPP_IFNb_IFNg"),
         treatment = fct_recode(treatment, 
                                "IL4_upLPS" = "L4_upLPS",
                                "upLPS" = "pLPS",
                                "IL4" = "L4")) %>%
  dplyr::select(raw_id, geo_id, treatment, clusternum, everything()) %>%
  print()

# A tibble: 111 x 42
   raw_id geo_id treatment clusternum cell_type geo_accession status
   <chr>  <chr>  <fct>     <fct>      <chr>     <chr>         <fct> 
 1 44876… GSM11… control   0          "M0_GMCS… GSM1140443    Publi…
 2 44876… GSM11… IL4       2          "M_GMCSF… GSM1140444    Publi…
 3 44876… GSM11… TPP       9          "M_GMCSF… GSM1140445    Publi…
 4 44876… GSM11… IFNg      6          "M_GMCSF… GSM1140446    Publi…
 5 46761… GSM11… sLPS_IC   7          "M_GMCSF… GSM1140484    Publi…
 6 46761… GSM11… IL13      2          "M_GMCSF… GSM1140485    Publi…
 7 46761… GSM11… IL10      1          "M_GMCSF… GSM1140486    Publi…
 8 46761… GSM11… sLPS      7          "M_GMCSF… GSM1140489    Publi…
 9 46761… GSM11… IFNg      6          "M_GMCSF… GSM1140490    Publi…
10 46761… GSM11… IL4       2          "M_GMCSF… GSM1140492    Publi…
# … with 101 more rows, and 35 more variables: submission_date <fct>,
#   last_update_date <fct>, type <fct>, channel_count <fct>,
#   source_name_ch1 <fct>, organism_ch1 <fct>, characteristics_ch1 <fct>,
#   characteristics_ch1.1 <fct>, characteristics_ch1.2 <fct>,
#   characteristics_ch1.3 <fct>, molecule_ch1 <fct>,
#   extract_protocol_ch1 <fct>, label_ch1 <fct>, label_protocol_ch1 <fct>,
#   taxid_ch1 <fct>, hyb_protocol <fct>, scan_protocol <fct>,
#   description <fct>, data_processing <fct>, platform_id <fct>,
#   contact_name <fct>, contact_email <fct>, contact_department <fct>,
…
# add categories and factors
# select columns of interest from phenotype data
pheno_pca <- pheno_data %>%
  dplyr::select(raw_id, treatment, clusternum)

df_pca <- t_DataMatrix %>%
  as.data.frame() %>%
  rownames_to_column(var = "raw_id") %>%
  left_join(pheno_pca, by = "raw_id") %>%
  as_tibble() %>%
  dplyr::select(raw_id, treatment, clusternum, everything()) %>%
  print()

# A tibble: 111 x 39,471
   raw_id treatment clusternum fqPEquJRRlSVSfL… ckiehnugOno9d7v…
   <chr>  <fct>     <fct>                 <dbl>            <dbl>
 1 44876… control   0                      6.33             6.31
 2 44876… IL4       2                      6.14             6.10
 3 44876… TPP       9                      6.12             6.30
 4 44876… IFNg      6                      6.39             6.00
 5 46761… sLPS_IC   7                      6.02             6.71
 6 46761… IL13      2                      6.13             6.52
 7 46761… IL10      1                      6.11             6.03
 8 46761… sLPS      7                      6.83             6.27
 9 46761… IFNg      6                      6.51             6.30
10 46761… IL4       2                      6.08             6.12
# … with 101 more rows, and 39,466 more variables:
#   ritxUH.kuHlYqjozpE <dbl>, QpE5UiUgmJOJEkPXpc <dbl>,
#   EedxN6XeUOgPSCywB0 <dbl>, `3l3lDoD0gssAdeehIY` <dbl>,
#   WS4S8aGL855YVcUUZE <dbl>, KS8aGL855YVcUUZH50 <dbl>,
#   TdSfOuLunqrkiJkag8 <dbl>, ZfoDn4IUQp4Auf56LU <dbl>,
#   `97DZJV_gpQpKINl0Ec` <dbl>, W38p0ogk.wIBVRXllY <dbl>,
#   QUTgUoqmp7jyKCQRHo <dbl>, BZKiEvS0eQ305U0v34 <dbl>,
#   HshT.TuzF13i0V0rKg <dbl>, `6Rff76jvd6HDh1KYhQ` <dbl>,
#   `6TheVd.HiE1UF3lX6g` <dbl>, QueXUXiL5yqvftiNO0 <dbl>,
…
