ssGSEA
…
tidy_es <- tcga_es_tidy %>%
  mutate(group = str_sub(sampleID, 1, 4)) %>%
  mutate(group = ifelse(grepl("^GBM*", group), "GBM", group)) %>%
  mutate(group = ifelse(grepl("^OV*", group), "OV", group)) %>%
  mutate(group = ifelse(grepl("^LGG*", group), "LGG", group)) %>%
  mutate(group = ifelse(grepl("^UVM*", group), "UVM", group)) %>%
  mutate(group = ifelse(grepl("^UCS*", group), "UCS", group)) %>%
  mutate(group = ifelse(grepl("^ACC*", group), "ACC", group)) %>%
  mutate(group = as.factor(group))

tidy_es

# A tibble: 144,135 x 4
   gene_set   sampleID   score group
   <chr>      <chr>      <dbl> <fct>
 1 upreg_c1   BRCA1    -0.255  BRCA 
 2 upreg_c2   BRCA1     0.231  BRCA 
 3 upreg_c3   BRCA1     0.193  BRCA 
 4 upreg_c4   BRCA1     0.164  BRCA 
 5 upreg_c5   BRCA1    -0.273  BRCA 
 6 upreg_c6   BRCA1     0.0856 BRCA 
 7 upreg_c7   BRCA1     0.151  BRCA 
 8 downreg_c1 BRCA1    -0.0387 BRCA 
 9 downreg_c2 BRCA1     0.128  BRCA 
10 downreg_c3 BRCA1     0.241  BRCA 
# … with 144,125 more rows
…
pheno_joined <- pheno_data %>%
  left_join(lookup_table) %>%
  print()

Joining, by = c("file_id", "file_names", "submitter_id", "project_id", "sample_type", "cases_0_submitter_id", "cases_0_case_id", "cases_0_samples_0_tissue_type", "cases_0_samples_0_portions_0_analytes_0_aliquots_0_aliquot_id", "cases_0_samples_0_sample_id", "cases_0_samples_0_tumor_descriptor", "cases_0_samples_0_portions_0_analytes_0_aliquots_0_submitter_id")

Warning: Column `file_id` joining character vector and factor, coercing
into character vector

Warning: Column `file_names` joining character vector and factor, coercing
into character vector

# A tibble: 9,930 x 16
   sample file_id file_names md5     size state submitter_id project_id
   <chr>  <chr>   <chr>      <chr>  <dbl> <chr> <chr>        <chr>     
 1 BRCA1  f36a2b… 2b5c518f-… af13… 257725 rele… TCGA-AR-A25… TCGA-BRCA 
 2 BRCA2  d8b83d… 64262505-… 84e3… 256496 rele… TCGA-AO-A1K… TCGA-BRCA 
 3 BRCA4  043616… 6999d309-… 16d4… 250749 rele… TCGA-V7-A7H… TCGA-BRCA 
 4 BRCA5  8392cc… aa623193-… 48cf… 259222 rele… TCGA-AC-A2B… TCGA-BRCA 
 5 BRCA6  73df74… 6fdbbe35-… 2881… 254841 rele… TCGA-E2-A10… TCGA-BRCA 
 6 BRCA7  50a55f… 0cb461ea-… 5abc… 254882 rele… TCGA-AR-A1A… TCGA-BRCA 
 7 BRCA8  59c647… e023c283-… 20ba… 254434 rele… TCGA-AC-A3W… TCGA-BRCA 
 8 BRCA9  5395a2… 3c631c4d-… fdf7… 255883 rele… TCGA-A7-A42… TCGA-BRCA 
 9 BRCA10 8bd0e2… 4e2d8faa-… 4101… 253500 rele… TCGA-BH-A0H… TCGA-BRCA 
10 BRCA11 0767ce… 462312a9-… 6c10… 254107 rele… TCGA-AQ-A0Y… TCGA-BRCA 
# … with 9,920 more rows, and 8 more variables: sample_type <chr>,
#   cases_0_submitter_id <chr>, cases_0_case_id <chr>,
#   cases_0_samples_0_tissue_type <lgl>,
#   cases_0_samples_0_portions_0_analytes_0_aliquots_0_aliquot_id <chr>,
#   cases_0_samples_0_sample_id <chr>,
#   cases_0_samples_0_tumor_descriptor <lgl>,
#   cases_0_samples_0_portions_0_analytes_0_aliquots_0_submitter_id <chr>
…
