survival
…
    Vignettes contain introductory material; view with
    'browseVignettes()'. To cite Bioconductor, see
    'citation("Biobase")', and for packages 'citation("pkgname")'.

Load data

imtx_gsva_results <- readRDS("output/imtx_gsva_17geneset_results.rds") %>%
  t() %>%
  as.data.frame() %>%
  rownames_to_column(var = "sample_id") %>% 
  as_tibble() %>%
  print()

# A tibble: 226 x 20
   sample_id upreg_c1 upreg_c2 upreg_c3 upreg_c4 upreg_c5 upreg_c6 upreg_c7
   <chr>        <dbl>    <dbl>    <dbl>    <dbl>    <dbl>    <dbl>    <dbl>
 1 ERR22088…   0.355    -0.277  -0.112    -0.242  -0.172   -0.341    -0.268
 2 ERR22088…  -0.187    -0.531  -0.294    -0.369  -0.486   -0.458    -0.482
 3 ERR22088…  -0.238    -0.349  -0.304    -0.219  -0.121   -0.316    -0.304
 4 ERR22088…   0.465     0.116   0.316     0.349   0.273    0.140     0.166
 5 ERR22088…   0.318     0.592   0.615     0.574   0.563    0.576     0.638
 6 ERR22088…   0.161     0.448   0.436     0.346   0.208    0.438     0.427
 7 ERR22088…  -0.354    -0.521  -0.492    -0.357  -0.475   -0.324    -0.533
 8 ERR22088…  -0.251    -0.334  -0.385    -0.434  -0.430   -0.329    -0.530
 9 ERR22088…  -0.0162   -0.426  -0.181    -0.242  -0.196   -0.244    -0.237
10 ERR22088…  -0.143     0.318  -0.0566   -0.149  -0.0607   0.0735    0.179
# … with 216 more rows, and 12 more variables: downreg_c1 <dbl>,
#   downreg_c2 <dbl>, downreg_c3 <dbl>, downreg_c4 <dbl>,
#   downreg_c5 <dbl>, downreg_c6 <dbl>, downreg_c7 <dbl>,
#   tcell_gset <dbl>, cxcl9_cxcl10 <dbl>, merck_tis_expanded_ifn <dbl>,
#   m1_blueprint <dbl>, m2_blueprint <dbl>
…
PFS

Clean data

https://www.datacamp.com/community/tutorials/survival-analysis-R https://dplyr.tidyverse.org/articles/window-functions.html

# get pheno data out of expressionset
# remove ocular and other types of melanoma (keep only cutaneous or not specified)
imtx_pdata <- pData(imtx_es) %>% 
  rownames_to_column(var = "sample_id") %>%
  as_tibble() %>%
  dplyr::filter(subtype %in% c("CUTANEOUS", NA)) %>%
  print()

# A tibble: 191 x 18
   sample_id patient library read_group platform center date   lane   run
   <chr>     <chr>   <chr>   <chr>      <chr>    <chr>  <chr> <dbl> <dbl>
 1 ERR22088… gide_i… ERR220… ERR2208887 Illumina GIDE   1/1/…     1   356
 2 ERR22088… gide_i… ERR220… ERR2208888 Illumina GIDE   1/1/…     1   356
 3 ERR22088… gide_i… ERR220… ERR2208889 Illumina GIDE   1/1/…     5   434
 4 ERR22088… gide_i… ERR220… ERR2208890 Illumina GIDE   1/1/…     5   356
 5 ERR22088… gide_i… ERR220… ERR2208891 Illumina GIDE   1/1/…     6   434
 6 ERR22088… gide_i… ERR220… ERR2208892 Illumina GIDE   1/1/…     6   434
 7 ERR22088… gide_i… ERR220… ERR2208893 Illumina GIDE   1/1/…     4   434
 8 ERR22088… gide_i… ERR220… ERR2208894 Illumina GIDE   1/1/…     4   434
 9 ERR22088… gide_i… ERR220… ERR2208895 Illumina GIDE   1/1/…     5   356
10 ERR22088… gide_i… ERR220… ERR2208896 Illumina GIDE   1/1/…     1     0
# … with 181 more rows, and 9 more variables: flavor <chr>, genome <chr>,
#   os_days <dbl>, os_status <dbl>, response <chr>, subtype <chr>,
#   cyt <dbl>, pfs_days <dbl>, pfs_status <dbl>

# get cases with PFS data, merge with gsva results
pfs_data <- imtx_pdata %>%
  drop_na(pfs_status) %>%
  left_join(imtx_gsva_results) %>%
  print()

Joining, by = "sample_id"

# A tibble: 91 x 37
   sample_id patient library read_group platform center date   lane   run
   <chr>     <chr>   <chr>   <chr>      <chr>    <chr>  <chr> <dbl> <dbl>
 1 ERR22088… gide_i… ERR220… ERR2208887 Illumina GIDE   1/1/…     1   356
 2 ERR22088… gide_i… ERR220… ERR2208888 Illumina GIDE   1/1/…     1   356
 3 ERR22088… gide_i… ERR220… ERR2208889 Illumina GIDE   1/1/…     5   434
 4 ERR22088… gide_i… ERR220… ERR2208890 Illumina GIDE   1/1/…     5   356
 5 ERR22088… gide_i… ERR220… ERR2208891 Illumina GIDE   1/1/…     6   434
 6 ERR22088… gide_i… ERR220… ERR2208892 Illumina GIDE   1/1/…     6   434
 7 ERR22088… gide_i… ERR220… ERR2208893 Illumina GIDE   1/1/…     4   434
 8 ERR22088… gide_i… ERR220… ERR2208894 Illumina GIDE   1/1/…     4   434
 9 ERR22088… gide_i… ERR220… ERR2208895 Illumina GIDE   1/1/…     5   356
10 ERR22088… gide_i… ERR220… ERR2208896 Illumina GIDE   1/1/…     1     0
# … with 81 more rows, and 28 more variables: flavor <chr>, genome <chr>,
#   os_days <dbl>, os_status <dbl>, response <chr>, subtype <chr>,
#   cyt <dbl>, pfs_days <dbl>, pfs_status <dbl>, upreg_c1 <dbl>,
#   upreg_c2 <dbl>, upreg_c3 <dbl>, upreg_c4 <dbl>, upreg_c5 <dbl>,
#   upreg_c6 <dbl>, upreg_c7 <dbl>, downreg_c1 <dbl>, downreg_c2 <dbl>,
#   downreg_c3 <dbl>, downreg_c4 <dbl>, downreg_c5 <dbl>,
#   downreg_c6 <dbl>, downreg_c7 <dbl>, tcell_gset <dbl>,
#   cxcl9_cxcl10 <dbl>, merck_tis_expanded_ifn <dbl>, m1_blueprint <dbl>,
#   m2_blueprint <dbl>

# divide into quartiles by cluster expression
# 4 is highest quartile and 1 is lowest
pfs_data_rank <- pfs_data %>%
  mutate(c1_quartile = ntile(upreg_c1, 4)) %>%
  mutate(c2_quartile = ntile(upreg_c2, 4)) %>%
  mutate(c3_quartile = ntile(upreg_c3, 4)) %>%
  mutate(c4_quartile = ntile(upreg_c4, 4)) %>%
  mutate(c5_quartile = ntile(upreg_c5, 4)) %>%
  mutate(c6_quartile = ntile(upreg_c6, 4)) %>%
  mutate(c7_quartile = ntile(upreg_c7, 4)) %>%
  mutate(tcell_quartile = ntile(tcell_gset, 4)) %>%
  print()

# A tibble: 91 x 45
   sample_id patient library read_group platform center date   lane   run
   <chr>     <chr>   <chr>   <chr>      <chr>    <chr>  <chr> <dbl> <dbl>
 1 ERR22088… gide_i… ERR220… ERR2208887 Illumina GIDE   1/1/…     1   356
 2 ERR22088… gide_i… ERR220… ERR2208888 Illumina GIDE   1/1/…     1   356
 3 ERR22088… gide_i… ERR220… ERR2208889 Illumina GIDE   1/1/…     5   434
 4 ERR22088… gide_i… ERR220… ERR2208890 Illumina GIDE   1/1/…     5   356
 5 ERR22088… gide_i… ERR220… ERR2208891 Illumina GIDE   1/1/…     6   434
 6 ERR22088… gide_i… ERR220… ERR2208892 Illumina GIDE   1/1/…     6   434
 7 ERR22088… gide_i… ERR220… ERR2208893 Illumina GIDE   1/1/…     4   434
 8 ERR22088… gide_i… ERR220… ERR2208894 Illumina GIDE   1/1/…     4   434
 9 ERR22088… gide_i… ERR220… ERR2208895 Illumina GIDE   1/1/…     5   356
10 ERR22088… gide_i… ERR220… ERR2208896 Illumina GIDE   1/1/…     1     0
# … with 81 more rows, and 36 more variables: flavor <chr>, genome <chr>,
#   os_days <dbl>, os_status <dbl>, response <chr>, subtype <chr>,
#   cyt <dbl>, pfs_days <dbl>, pfs_status <dbl>, upreg_c1 <dbl>,
#   upreg_c2 <dbl>, upreg_c3 <dbl>, upreg_c4 <dbl>, upreg_c5 <dbl>,
#   upreg_c6 <dbl>, upreg_c7 <dbl>, downreg_c1 <dbl>, downreg_c2 <dbl>,
#   downreg_c3 <dbl>, downreg_c4 <dbl>, downreg_c5 <dbl>,
#   downreg_c6 <dbl>, downreg_c7 <dbl>, tcell_gset <dbl>,
#   cxcl9_cxcl10 <dbl>, merck_tis_expanded_ifn <dbl>, m1_blueprint <dbl>,
#   m2_blueprint <dbl>, c1_quartile <int>, c2_quartile <int>,
…
OS

Clean data

# get pheno data out of expressionset
# remove ocular and other types of melanoma (keep only cutaneous or not specified)
imtx_pdata <- pData(imtx_es) %>% 
  rownames_to_column(var = "sample_id") %>%
  as_tibble() %>%
  dplyr::filter(subtype %in% c("CUTANEOUS", NA)) %>%
  print()

# A tibble: 191 x 18
   sample_id patient library read_group platform center date   lane   run
   <chr>     <chr>   <chr>   <chr>      <chr>    <chr>  <chr> <dbl> <dbl>
 1 ERR22088… gide_i… ERR220… ERR2208887 Illumina GIDE   1/1/…     1   356
 2 ERR22088… gide_i… ERR220… ERR2208888 Illumina GIDE   1/1/…     1   356
 3 ERR22088… gide_i… ERR220… ERR2208889 Illumina GIDE   1/1/…     5   434
 4 ERR22088… gide_i… ERR220… ERR2208890 Illumina GIDE   1/1/…     5   356
 5 ERR22088… gide_i… ERR220… ERR2208891 Illumina GIDE   1/1/…     6   434
 6 ERR22088… gide_i… ERR220… ERR2208892 Illumina GIDE   1/1/…     6   434
 7 ERR22088… gide_i… ERR220… ERR2208893 Illumina GIDE   1/1/…     4   434
 8 ERR22088… gide_i… ERR220… ERR2208894 Illumina GIDE   1/1/…     4   434
 9 ERR22088… gide_i… ERR220… ERR2208895 Illumina GIDE   1/1/…     5   356
10 ERR22088… gide_i… ERR220… ERR2208896 Illumina GIDE   1/1/…     1     0
# … with 181 more rows, and 9 more variables: flavor <chr>, genome <chr>,
#   os_days <dbl>, os_status <dbl>, response <chr>, subtype <chr>,
#   cyt <dbl>, pfs_days <dbl>, pfs_status <dbl>

# get cases with PFS data, merge with gsva results
os_data <- imtx_pdata %>%
  drop_na(os_status) %>%
  left_join(imtx_gsva_results) %>%
  dplyr::select(os_status, os_days, response, everything()) %>%
  print()

Joining, by = "sample_id"

# A tibble: 183 x 37
   os_status os_days response sample_id patient library read_group platform
       <dbl>   <dbl> <chr>    <chr>     <chr>   <chr>   <chr>      <chr>   
 1         0     689 PD       ERR22088… gide_i… ERR220… ERR2208887 Illumina
 2         0     689 PD       ERR22088… gide_i… ERR220… ERR2208888 Illumina
 3         1     176 PD       ERR22088… gide_i… ERR220… ERR2208889 Illumina
 4         0     293 PD       ERR22088… gide_i… ERR220… ERR2208890 Illumina
 5         1     357 PR       ERR22088… gide_i… ERR220… ERR2208891 Illumina
 6         1     357 PR       ERR22088… gide_i… ERR220… ERR2208892 Illumina
 7         0     691 SD       ERR22088… gide_i… ERR220… ERR2208893 Illumina
 8         1     660 SD       ERR22088… gide_i… ERR220… ERR2208894 Illumina
 9         0     196 PR       ERR22088… gide_i… ERR220… ERR2208895 Illumina
10         0     635 SD       ERR22088… gide_i… ERR220… ERR2208896 Illumina
# … with 173 more rows, and 29 more variables: center <chr>, date <chr>,
#   lane <dbl>, run <dbl>, flavor <chr>, genome <chr>, subtype <chr>,
#   cyt <dbl>, pfs_days <dbl>, pfs_status <dbl>, upreg_c1 <dbl>,
#   upreg_c2 <dbl>, upreg_c3 <dbl>, upreg_c4 <dbl>, upreg_c5 <dbl>,
#   upreg_c6 <dbl>, upreg_c7 <dbl>, downreg_c1 <dbl>, downreg_c2 <dbl>,
#   downreg_c3 <dbl>, downreg_c4 <dbl>, downreg_c5 <dbl>,
#   downreg_c6 <dbl>, downreg_c7 <dbl>, tcell_gset <dbl>,
#   cxcl9_cxcl10 <dbl>, merck_tis_expanded_ifn <dbl>, m1_blueprint <dbl>,
#   m2_blueprint <dbl>
# divide into quartiles by cluster expression
# 4 is highest quartile and 1 is lowest
os_data_rank <- os_data %>%
  mutate(c1_quartile = ntile(upreg_c1, 4)) %>%
  mutate(c2_quartile = ntile(upreg_c2, 4)) %>%
  mutate(c3_quartile = ntile(upreg_c3, 4)) %>%
  mutate(c4_quartile = ntile(upreg_c4, 4)) %>%
  mutate(c5_quartile = ntile(upreg_c5, 4)) %>%
  mutate(c6_quartile = ntile(upreg_c6, 4)) %>%
  mutate(c7_quartile = ntile(upreg_c7, 4)) %>%
  mutate(tcell_quartile = ntile(tcell_gset, 4)) %>%
  dplyr::select(os_days, os_status, c1_quartile, c2_quartile, c3_quartile, c4_quartile, c5_quartile, c6_quartile, c7_quartile, tcell_quartile) %>%
  print()

# A tibble: 183 x 10
   os_days os_status c1_quartile c2_quartile c3_quartile c4_quartile
     <dbl>     <dbl>       <int>       <int>       <int>       <int>
 1     689         0           4           2           2           1
 2     689         0           2           1           2           1
 3     176         1           1           1           1           2
 4     293         0           4           3           3           4
 5     357         1           4           4           4           4
 6     357         1           3           4           4           4
 7     691         0           1           1           1           1
 8     660         1           1           1           1           1
 9     196         0           2           1           2           1
10     635         0           2           3           2           2
# … with 173 more rows, and 4 more variables: c5_quartile <int>,
#   c6_quartile <int>, c7_quartile <int>, tcell_quartile <int>
…
